name="Western Natives"
tags={
	"Events,Historical,Fixes,Gameplay"
}
picture="thumbnail.png"
supported_version="1.32.*.*"
path="C:/Users/13146/Documents/Paradox Interactive/Europa Universalis IV/mod/western_natives"